# Column 1:  ID                [count,  u8]    Object ID
# Column 2:  RA                [deg,   f64]     Right Ascension of profile center
# Column 3:  Dec               [deg,   f64]     Declination of profile center
# Column 4:  Function          [name, str7]   Profile's radial function
# Column 5:  Width             [pixel, f64]   For Sersic: effective radius, for Moffat, FWHM
# Column 6:  Sersic index      [none,  f64]    Sersic index, or Moffat beta
# Column 7:  Position angle    [deg,   f64]     Position angle of profile
# Column 8:  Axis ratio        [frac,  f64]    Axis ratio of profile
# Column 9:  Magnitude         [ABmag, f64]   Magnitude of profile within truncation radius
# Column 10: Truncation radius [dist,  f64]    Truncation radius to stop building profile
#
# Copyright (C) 2015-2021, Free Software Foundation, Inc.
#
# Copying and distribution of this file, with or without modification, are
# permitted in any medium without royalty provided the copyright notice and
# this notice are preserved.  This file is offered as-is, without any
# warranty.
1     0.99987331  1.0001617     sersic     10.00     2.500      45.000     0.3      -6.0     2.000
2     0.99929656  1.0006917     sersic     10.00     2.500      135.00     0.3      -6.0     2.000
